build/divisor.vcd
$date
	Sun Nov 23 21:23:42 2025
$end
$version
	Icarus Verilog
$end
$timescale
	1ps
$end
$scope module divisor_TB $end
$var wire 1 ! terminado $end
$var wire 32 " cociente [31:0] $end
$var reg 1 # clk $end
$var reg 16 $ dividendo [15:0] $end
$var reg 16 % divisor_in [15:0] $end
$var reg 1 & iniciar $end
$var reg 1 ' rst_n $end
$scope module uut $end
$var wire 1 # clk $end
$var wire 16 ( dividendo [15:0] $end
$var wire 16 ) divisor [15:0] $end
$var wire 1 & iniciar $end
$var wire 1 ' rst_n $end
$var wire 16 * diferencia [15:0] $end
$var reg 32 + cociente [31:0] $end
$var reg 3 , estado [2:0] $end
$var reg 5 - iteracion [4:0] $end
$var reg 32 . reg_a [31:0] $end
$var reg 16 / reg_b [15:0] $end
$var reg 1 ! terminado $end
$upscope $end
$upscope $end
$enddefinitions $end
$comment Show the parameter values. $end
$dumpall
$end
#0
$dumpvars
bx /
bx .
bx -
bx ,
bx +
bx *
bx )
bx (
0'
0&
bx %
bx $
0#
bx "
x!
$end
#20000
b0 *
b0 -
b0 /
b0 .
b0 ,
b0 "
b0 +
0!
1#
#40000
0#
#60000
1#
#80000
0#
#100000
1#
1'
#120000
0#
#140000
b1 ,
1#
1&
b11 %
b11 )
b101010 $
b101010 (
#160000
0#
#180000
b10 ,
b10000 -
b1111111111111101 *
b11 /
b101010 .
1#
0&
#200000
0#
#220000
b11 ,
b1111 -
b1010100 .
1#
#240000
0#
#260000
b100 ,
1#
#280000
0#
#300000
b10 ,
1#
#320000
0#
#340000
b11 ,
b1110 -
b10101000 .
1#
#360000
0#
#380000
b100 ,
1#
#400000
0#
#420000
b10 ,
1#
#440000
0#
#460000
b11 ,
b1101 -
b101010000 .
1#
#480000
0#
#500000
b100 ,
1#
#520000
0#
#540000
b10 ,
1#
#560000
0#
#580000
b11 ,
b1100 -
b1010100000 .
1#
#600000
0#
#620000
b100 ,
1#
#640000
0#
#660000
b10 ,
1#
#680000
0#
#700000
b11 ,
b1011 -
b10101000000 .
1#
#720000
0#
#740000
b100 ,
1#
#760000
0#
#780000
b10 ,
1#
#800000
0#
#820000
b11 ,
b1010 -
b101010000000 .
1#
#840000
0#
#860000
b100 ,
1#
#880000
0#
#900000
b10 ,
1#
#920000
0#
#940000
b11 ,
b1001 -
b1010100000000 .
1#
#960000
0#
#980000
b100 ,
1#
#1000000
0#
#1020000
b10 ,
1#
#1040000
0#
#1060000
b11 ,
b1000 -
b10101000000000 .
1#
#1080000
0#
#1100000
b100 ,
1#
#1120000
0#
#1140000
b10 ,
1#
#1160000
0#
#1180000
b11 ,
b111 -
b101010000000000 .
1#
#1200000
0#
#1220000
b100 ,
1#
#1240000
0#
#1260000
b10 ,
1#
#1280000
0#
#1300000
b11 ,
b110 -
b1010100000000000 .
1#
#1320000
0#
#1340000
b100 ,
1#
#1360000
0#
#1380000
b10 ,
1#
#1400000
0#
#1420000
b1111111111111110 *
b11 ,
b101 -
b10101000000000000 .
1#
#1440000
0#
#1460000
b100 ,
1#
#1480000
0#
#1500000
b10 ,
1#
#1520000
0#
#1540000
b1111111111111111 *
b11 ,
b100 -
b101010000000000000 .
1#
#1560000
0#
#1580000
b100 ,
1#
#1600000
0#
#1620000
b10 ,
1#
#1640000
0#
#1660000
b10 *
b11 ,
b11 -
b1010100000000000000 .
1#
#1680000
0#
#1700000
b1111111111111111 *
b100 ,
b100100000000000001 .
1#
#1720000
0#
#1740000
b10 ,
1#
#1760000
0#
#1780000
b1 *
b11 ,
b10 -
b1001000000000000010 .
1#
#1800000
0#
#1820000
b1111111111111110 *
b100 ,
b11000000000000011 .
1#
#1840000
0#
#1860000
b10 ,
1#
#1880000
0#
#1900000
b0 *
b11 ,
b1 -
b110000000000000110 .
1#
#1920000
0#
#1940000
b1111111111111101 *
b100 ,
b111 .
1#
#1960000
0#
#1980000
b10 ,
1#
#2000000
0#
#2020000
b11 ,
b0 -
b1110 .
1#
#2040000
0#
#2060000
b100 ,
1#
#2080000
0#
#2100000
b101 ,
1#
#2120000
0#
#2140000
b0 ,
1!
b1110 "
b1110 +
1#
#2160000
0#
#2180000
0!
1#
#2200000
0#
#2220000
1#
#2240000
0#
#2260000
b1 ,
1#
1&
b1100 %
b1100 )
b0 $
b0 (
#2280000
0#
#2300000
b10 ,
b10000 -
b1111111111110100 *
b1100 /
b0 .
1#
0&
#2320000
0#
#2340000
b11 ,
b1111 -
1#
#2360000
0#
#2380000
b100 ,
1#
#2400000
0#
#2420000
b10 ,
1#
#2440000
0#
#2460000
b11 ,
b1110 -
1#
#2480000
0#
#2500000
b100 ,
1#
#2520000
0#
#2540000
b10 ,
1#
#2560000
0#
#2580000
b11 ,
b1101 -
1#
#2600000
0#
#2620000
b100 ,
1#
#2640000
0#
#2660000
b10 ,
1#
#2680000
0#
#2700000
b11 ,
b1100 -
1#
#2720000
0#
#2740000
b100 ,
1#
#2760000
0#
#2780000
b10 ,
1#
#2800000
0#
#2820000
b11 ,
b1011 -
1#
#2840000
0#
#2860000
b100 ,
1#
#2880000
0#
#2900000
b10 ,
1#
#2920000
0#
#2940000
b11 ,
b1010 -
1#
#2960000
0#
#2980000
b100 ,
1#
#3000000
0#
#3020000
b10 ,
1#
#3040000
0#
#3060000
b11 ,
b1001 -
1#
#3080000
0#
#3100000
b100 ,
1#
#3120000
0#
#3140000
b10 ,
1#
#3160000
0#
#3180000
b11 ,
b1000 -
1#
#3200000
0#
#3220000
b100 ,
1#
#3240000
0#
#3260000
b10 ,
1#
#3280000
0#
#3300000
b11 ,
b111 -
1#
#3320000
0#
#3340000
b100 ,
1#
#3360000
0#
#3380000
b10 ,
1#
#3400000
0#
#3420000
b11 ,
b110 -
1#
#3440000
0#
#3460000
b100 ,
1#
#3480000
0#
#3500000
b10 ,
1#
#3520000
0#
#3540000
b11 ,
b101 -
1#
#3560000
0#
#3580000
b100 ,
1#
#3600000
0#
#3620000
b10 ,
1#
#3640000
0#
#3660000
b11 ,
b100 -
1#
#3680000
0#
#3700000
b100 ,
1#
#3720000
0#
#3740000
b10 ,
1#
#3760000
0#
#3780000
b11 ,
b11 -
1#
#3800000
0#
#3820000
b100 ,
1#
#3840000
0#
#3860000
b10 ,
1#
#3880000
0#
#3900000
b11 ,
b10 -
1#
#3920000
0#
#3940000
b100 ,
1#
#3960000
0#
#3980000
b10 ,
1#
#4000000
0#
#4020000
b11 ,
b1 -
1#
#4040000
0#
#4060000
b100 ,
1#
#4080000
0#
#4100000
b10 ,
1#
#4120000
0#
#4140000
b11 ,
b0 -
1#
#4160000
0#
#4180000
b100 ,
1#
#4200000
0#
#4220000
b101 ,
1#
#4240000
0#
#4260000
b0 ,
1!
b0 "
b0 +
1#
