build/multiplicador.vcd
$date
	Thu Dec  4 09:23:47 2025
$end
$version
	Icarus Verilog
$end
$timescale
	1ps
$end
$scope module multiplicador_TB $end
$var wire 1 ! terminado $end
$var wire 32 " producto [31:0] $end
$var reg 1 # clk $end
$var reg 1 $ iniciar $end
$var reg 16 % operando_a [15:0] $end
$var reg 16 & operando_b [15:0] $end
$var reg 1 ' rst_n $end
$scope module uut $end
$var wire 1 # clk $end
$var wire 1 $ iniciar $end
$var wire 16 ( operando_a [15:0] $end
$var wire 16 ) operando_b [15:0] $end
$var wire 1 ' rst_n $end
$var reg 16 * b_temp [15:0] $end
$var reg 5 + contador [4:0] $end
$var reg 1 , ocupado $end
$var reg 32 - producto [31:0] $end
$var reg 1 ! terminado $end
$upscope $end
$upscope $end
$enddefinitions $end
$comment Show the parameter values. $end
$dumpall
$end
#0
$dumpvars
bx -
x,
bx +
bx *
b0 )
b0 (
0'
b0 &
b0 %
0$
0#
bx "
x!
$end
#20000
b0 +
b0 *
b0 "
b0 -
0,
0!
1#
#40000
0#
#60000
1#
#80000
0#
#100000
1#
1'
#120000
0#
1$
b110011 &
b110011 )
b1010101 %
b1010101 (
#140000
1,
b110011 *
1#
#160000
0#
0$
#180000
b1 +
b11001 *
b1010101 "
b1010101 -
1#
#200000
0#
#220000
b10 +
b1100 *
b11111111 "
b11111111 -
1#
#240000
0#
#260000
b11 +
b110 *
1#
#280000
0#
#300000
b100 +
b11 *
1#
#320000
0#
#340000
b101 +
b1 *
b11001001111 "
b11001001111 -
1#
#360000
0#
#380000
b110 +
b0 *
b1000011101111 "
b1000011101111 -
1#
#400000
0#
#420000
b111 +
1#
#440000
0#
#460000
b1000 +
1#
#480000
0#
#500000
b1001 +
1#
#520000
0#
#540000
b1010 +
1#
#560000
0#
#580000
b1011 +
1#
#600000
0#
#620000
b1100 +
1#
#640000
0#
#660000
b1101 +
1#
#680000
0#
#700000
b1110 +
1#
#720000
0#
#740000
b1111 +
1#
#760000
0#
#780000
b10000 +
1#
#800000
0#
#820000
0,
1!
1#
#840000
0#
#860000
1#
#880000
0#
#900000
1#
#920000
0#
#940000
b0 +
0!
1,
b0 "
b0 -
b1111111111111111 *
1#
1$
b1111111111111111 &
b1111111111111111 )
b1111111111111111 %
b1111111111111111 (
#960000
0#
#980000
b1 +
b111111111111111 *
b1111111111111111 "
b1111111111111111 -
1#
0$
#1000000
0#
#1020000
b10 +
b11111111111111 *
b101111111111111101 "
b101111111111111101 -
1#
#1040000
0#
#1060000
b11 +
b1111111111111 *
b1101111111111111001 "
b1101111111111111001 -
1#
#1080000
0#
#1100000
b100 +
b111111111111 *
b11101111111111110001 "
b11101111111111110001 -
1#
#1120000
0#
#1140000
b101 +
b11111111111 *
b111101111111111100001 "
b111101111111111100001 -
1#
#1160000
0#
#1180000
b110 +
b1111111111 *
b1111101111111111000001 "
b1111101111111111000001 -
1#
#1200000
0#
#1220000
b111 +
b111111111 *
b11111101111111110000001 "
b11111101111111110000001 -
1#
#1240000
0#
#1260000
b1000 +
b11111111 *
b111111101111111100000001 "
b111111101111111100000001 -
1#
#1280000
0#
#1300000
b1001 +
b1111111 *
b1111111101111111000000001 "
b1111111101111111000000001 -
1#
#1320000
0#
#1340000
b1010 +
b111111 *
b11111111101111110000000001 "
b11111111101111110000000001 -
1#
#1360000
0#
#1380000
b1011 +
b11111 *
b111111111101111100000000001 "
b111111111101111100000000001 -
1#
#1400000
0#
#1420000
b1100 +
b1111 *
b1111111111101111000000000001 "
b1111111111101111000000000001 -
1#
#1440000
0#
#1460000
b1101 +
b111 *
b11111111111101110000000000001 "
b11111111111101110000000000001 -
1#
#1480000
0#
#1500000
b1110 +
b11 *
b111111111111101100000000000001 "
b111111111111101100000000000001 -
1#
#1520000
0#
#1540000
b1111 +
b1 *
b1111111111111101000000000000001 "
b1111111111111101000000000000001 -
1#
#1560000
0#
#1580000
b10000 +
b0 *
b11111111111111100000000000000001 "
b11111111111111100000000000000001 -
1#
#1600000
0#
#1620000
0,
1!
1#
